{
  "type": "service_account",
  "project_id": "winpoint-production",
  "private_key_id": "8babda55526383a022746d58567a8284dbfa036a",
  "private_key": "-----BEGIN PRIVATE KEY-----\nMIIEvwIBADANBgkqhkiG9w0BAQEFAASCBKkwggSlAgEAAoIBAQDWg2/sZ9+oLE21\nsXbFLL4YsK0DdHyCVF4DeV8o7mQTl2vHQsMMPFngjk9Z/noVi06EUQ/oVKDT6Eby\nKHhPh0juHk+gEM3an+dyNzHnBDGl1xiwgPHu45XwDrpwKXeFT2tHZZ4Q56abxdVV\nz+ZY7ckh4eToH2MmQ9YQFEd0rQgHh47+6IMurcUKzuL+vv98V41Z+cWcpNz0XKUy\nZ8KEZ6mElLfuXrU/7HZYvBA/avYZRSTyvUBNMySBJgpKFYcF7qZedFp+PvDLVts1\nmQo3UHSPJmhbmScK5c329WyVIEs8mcqN6GbgQIss/qcXkWyA7x53HP31GmyQxisD\nWsLwrAHzAgMBAAECggEAJTAlG51IY03G7QxGdFlU3U/ntpUfrrJ0l/KXIi/tzo2u\nJB25VaoyxKC3NflNbeW4J20sLlFZjlMS1ZFZhiQEay97C1tObKvTAnR6JLwP5Vm8\nUIESMCFpUXQkMySlMUm65eZCeFjIg/HQka9Ylism9sZEGk+yryQMfL4fQyVqIm+2\nvR157jT0fd9JL/O7Z5iNuFiVu+C/N2siqRj35NPpZH6aHr8na0JEVs6FbYOE0Lx9\nCia8RzoSqgEtT3j5SchVdNgYqrlk7Kprfik89wsyqHPxT5/xikRtmkbbpAA2juc+\nGkz+eJuAd84lOrca7SOy2tS52VieVEWDNM+IygkrtQKBgQD+lztAfMKmtr81hYzJ\ntsaiuc8+a6GeK9CuAHKNBOrS+yh05NJ1rVIKh0QO2Uhq0bjdmgAPV2cNNX/WYZfR\nq3gYWadkYnU/mM0Rxau4gA28z/OfBx9M/Pp6PkcisziW3nR+UQ1YrFJ9lmIwTJln\nDUrBdZjMzSWCol9YGw5BZEYSVQKBgQDXs2oAMr/DEMBOdfyy/58PQ+xtbTsCqeUc\n1Hre0jJUiggJMG6rySNnWAuy8ODdzy9n5w7FUxKhcFuaSpFFk5F8lgftj8VrQYl0\n4he41u0OkkoULjjGY+cpWEzQ5haPG6s3z69QdOQUs5uM+p3yC8P/qlwgKkc7OuQR\n3dDhdI9bJwKBgQDOlHQ1vYZMtJiumzFENBU10UPCyJ8Zsz/fEOniV40bqUSIpWvI\npNyfQmcNDW5fjtFMrztBN5Cc/T4//Gyua05Fo+nZ4LJ26kvsEdNnIDEFdk+eSK8z\nT0sHiiU6mOZgNR2dqbMEsr80vKPrwRvwrK5uEDfuZr/7IjnvSfTlRrI9CQKBgQCl\nlnculcb+sbJfyVXn+DKcXnF3A97ESba4LinxOn4mxhwrKcIcIHoMUNwST7bgsLfc\n1NVTCFYKFx5LUSk6t3F9qhOF/NP6ZcJnN1YssNolUIqL+XveWT1RURcPW0NAM2Z6\nnvYgFswtVEB6tr5f3UZm09qLWsl6H9iMGrPLEFcpCwKBgQDCR0Bz066zeyHKBfkM\nYFbzt98Nj9eF1mSf9t0L7Xk/QuNpVbNy3nOfTkzLjkMSWJS2NlL/8wlLWEf0nw6e\nIQzjzvLuU1kkjsRwdCONc67Turx/LmOSEWMA9nRG8xYOVhMtqgLYPyvurrnwq3Ho\n7P8D59HI9ZrRJ++t2yL79+wpxA==\n-----END PRIVATE KEY-----\n",
  "client_email": "firebase-adminsdk-2l5kx@winpoint-production.iam.gserviceaccount.com",
  "client_id": "108461101646936981282",
  "auth_uri": "https://accounts.google.com/o/oauth2/auth",
  "token_uri": "https://oauth2.googleapis.com/token",
  "auth_provider_x509_cert_url": "https://www.googleapis.com/oauth2/v1/certs",
  "client_x509_cert_url": "https://www.googleapis.com/robot/v1/metadata/x509/firebase-adminsdk-2l5kx%40winpoint-production.iam.gserviceaccount.com"
}
