﻿districtID,DistrictName,PersonID,PersonName,PersonParty,Value,Party
1403,Minnesota State Senate District 1,36999,Mark Johnson,Republican Party,0.484,R
1404,Minnesota State Senate District 2,43899,Paul Utke,Republican Party,0.465,R
1405,Minnesota State Senate District 3,54564,Thomas Bakk,Democratic Party,0.629,D
1406,Minnesota State Senate District 4,32240,Kent Eken,Democratic Party,0.609,D
1407,Minnesota State Senate District 5,30568,Justin Eichorn,Republican Party,0.542,R
1408,Minnesota State Senate District 6,13285,David Tomassoni,Democratic Party,0.629,D
1409,Minnesota State Senate District 7,17533,Erik Simonson,Democratic Party,0.767,D
1410,Minnesota State Senate District 8,4385,Bill Ingebrigtsen,Republican Party,0.464,R
1411,Minnesota State Senate District 9,43605,Paul Gazelka,Republican Party,0.388,R
1412,Minnesota State Senate District 10,7471,Carrie Ruud,Republican Party,0.479,R
1413,Minnesota State Senate District 11,56312,Tony Lourey,Democratic Party,0.575,D
1414,Minnesota State Senate District 12,56434,Torrey Westrom,Republican Party,0.482,R
1415,Minnesota State Senate District 13,24542,Jeff Howe,Republican Party,0.478,R
1416,Minnesota State Senate District 14,25466,Jerry Relph,Republican Party,0.584,R
1417,Minnesota State Senate District 15,1718,Andrew Mathews,Republican Party,0.408,R
1418,Minnesota State Senate District 16,18930,Gary Dahms,Republican Party,0.501,R
1419,Minnesota State Senate District 17,1701,Andrew Lang,Republican Party,0.528,R
1420,Minnesota State Senate District 18,50564,Scott Newman,Republican Party,0.464,R
1421,Minnesota State Senate District 19,42099,Nick Frentz,Democratic Party,0.652,D
1422,Minnesota State Senate District 20,46055,Rich Draheim,Republican Party,0.56,R
1423,Minnesota State Senate District 21,40623,Mike Goggin,Republican Party,0.54,R
1424,Minnesota State Senate District 22,4605,Bill Weber,Republican Party,0.457,R
1425,Minnesota State Senate District 23,30471,Julie Rosen,Republican Party,0.499,R
1426,Minnesota State Senate District 24,27986,John Jasinski,Republican Party,0.526,R
1427,Minnesota State Senate District 25,13189,David Senjem,Republican Party,0.592,R
1428,Minnesota State Senate District 26,7059,Carla Nelson,Republican Party,0.6,R
1429,Minnesota State Senate District 27,11192,Dan Sparks,Democratic Party,0.577,D
1430,Minnesota State Senate District 28,25228,Jeremy Miller,Republican Party,0.571,R
1431,Minnesota State Senate District 29,6330,Bruce Anderson,Republican Party,0.477,R
1432,Minnesota State Senate District 30,37946,Mary Kiffmeyer,Republican Party,0.465,R
1433,Minnesota State Senate District 31,40246,Michelle Benson,Republican Party,0.421,R
1434,Minnesota State Senate District 32,37026,Mark Koran,Republican Party,0.48,R
1435,Minnesota State Senate District 33,12999,David Osmek,Republican Party,0.556,R
1436,Minnesota State Senate District 34,57695,Warren Limmer,Republican Party,0.595,R
1437,Minnesota State Senate District 35,25782,Jim Abeler,Republican Party,0.535,R
1438,Minnesota State Senate District 36,27902,John Hoffman,Democratic Party,0.634,D
1439,Minnesota State Senate District 37,25445,Jerry Newton,Democratic Party,0.609,D
1440,Minnesota State Senate District 38,48303,Roger Chamberlain,Republican Party,0.591,R
1441,Minnesota State Senate District 39,30955,Karin Housley,Republican Party,0.59,R
1442,Minnesota State Senate District 40,8730,Chris Eaton,Democratic Party,0.77,D
1443,Minnesota State Senate District 41,7416,Carolyn Laine,Democratic Party,0.73,D
1444,Minnesota State Senate District 42,23934,Jason Isaacson,Democratic Party,0.678,D
1445,Minnesota State Senate District 43,8295,Charles Wiger,Democratic Party,0.678,D
1446,Minnesota State Senate District 44,43439,Paul Anderson,Republican Party,0.677,R
1447,Minnesota State Senate District 45,2206,Ann Rest,Democratic Party,0.742,D
1448,Minnesota State Senate District 46,48581,Ron Latz,Democratic Party,0.789,D
1449,Minnesota State Senate District 47,50484,Scott Jensen,Republican Party,0.538,R
1450,Minnesota State Senate District 48,52482,Steve Cwodzinski,Democratic Party,0.67,D
1451,Minnesota State Senate District 49,38875,Melisa Franzen,Democratic Party,0.695,D
1452,Minnesota State Senate District 50,38900,Melissa Wiklund,Democratic Party,0.72,D
1453,Minnesota State Senate District 51,25851,Jim Carlson,Democratic Party,0.685,D
1454,Minnesota State Senate District 52,38258,Matt Klein,Democratic Party,0.676,D
1455,Minnesota State Senate District 53,53421,Susan Kent,Democratic Party,0.658,D
1456,Minnesota State Senate District 54,293342,Karla Bigham,Democratic Party,0.623,D
1457,Minnesota State Senate District 55,17385,Eric Pratt,Republican Party,0.546,R
1458,Minnesota State Senate District 56,11013,Dan Hall,Republican Party,0.616,R
1459,Minnesota State Senate District 57,20281,Greg Clausen,Democratic Party,0.634,D
1460,Minnesota State Senate District 58,38270,Matt Little,Democratic Party,0.544,D
1461,Minnesota State Senate District 59,5210,Bobby Champion,Democratic Party,0.875,D
1462,Minnesota State Senate District 60,30942,Kari Dziedzic,Democratic Party,0.897,D
1463,Minnesota State Senate District 61,50380,Scott Dibble,Democratic Party,0.895,D
1464,Minnesota State Senate District 62,24532,Jeff Hayden,Democratic Party,0.941,D
1465,Minnesota State Senate District 63,43108,Patricia Ray,Democratic Party,0.88,D
1466,Minnesota State Senate District 64,14652,Dick Cohen,Democratic Party,0.859,D
1467,Minnesota State Senate District 65,50049,Sandra Pappas,Democratic Party,0.87,D
1468,Minnesota State Senate District 66,28216,John Marty,Democratic Party,0.819,D
1469,Minnesota State Senate District 67,18069,Foung Hawj,Democratic Party,0.818,D