﻿districtID,DistrictName,PersonID,PersonName,PersonParty,Value,Party
4760,Minnesota House of Representatives District 1A,10975,Dan Fabian,Republican Party,0.363,R
4761,Minnesota House of Representatives District 1B,13820,Debra Kiel,Republican Party,0.399,R
4762,Minnesota House of Representatives District 2A,38463,Matthew Grossell,Republican Party,0.412,R
4763,Minnesota House of Representatives District 2B,52546,Steve Green,Republican Party,0.365,R
4764,Minnesota House of Representatives District 3A,47049,Rob Ecklund,Democratic Party,0.517,D
4765,Minnesota House of Representatives District 3B,38002,Mary Murphy,Democratic Party,0.573,D
4766,Minnesota House of Representatives District 4A,3644,Ben Lien,Democratic Party,0.566,D
4767,Minnesota House of Representatives District 4B,43718,Paul Marquart,Democratic Party,0.436,D
4768,Minnesota House of Representatives District 5A,38170,Matt Bliss,Republican Party,0.475,R
4769,Minnesota House of Representatives District 5B,50096,Sandy Layman,Republican Party,0.438,R
4770,Minnesota House of Representatives District 6A,30474,Julie Sandstede,Democratic Party,0.551,D
4771,Minnesota House of Representatives District 6B,302046,Dave Lislegard,Democratic Party,0.545,D
4772,Minnesota House of Representatives District 7A,25107,Jennifer Schultz,Democratic Party,0.707,D
4773,Minnesota House of Representatives District 7B,35193,Liz Olson,Democratic Party,0.683,D
4774,Minnesota House of Representatives District 8A,6647,Bud Nornes,Republican Party,0.368,R
4775,Minnesota House of Representatives District 8B,37872,Mary Franson,Republican Party,0.345,R
4776,Minnesota House of Representatives District 9A,28464,John Poston,Republican Party,0.302,R
4777,Minnesota House of Representatives District 9B,48578,Ron Kresha,Republican Party,0.287,R
4778,Minnesota House of Representatives District 10A,29865,Josh Heintzeman,Republican Party,0.379,R
4779,Minnesota House of Representatives District 10B,10798,Dale Lueck,Republican Party,0.38,R
4780,Minnesota House of Representatives District 11A,41004,Mike Sundin,Democratic Party,0.558,D
4781,Minnesota House of Representatives District 11B,24026,Jason Rarick,Republican Party,0.397,R
4782,Minnesota House of Representatives District 12A,24412,Jeff Backer,Republican Party,0.404,R
4783,Minnesota House of Representatives District 12B,43438,Paul Anderson,Republican Party,0.305,R
4784,Minnesota House of Representatives District 13A,302058,Lisa Demuth,Republican Party,0.358,R
4785,Minnesota House of Representatives District 13B,55166,Tim O'Driscoll,Republican Party,0.362,R
4786,Minnesota House of Representatives District 14A,53765,Tama Theis,Republican Party,0.463,R
4787,Minnesota House of Representatives District 14B,11224,Dan Wolgamott,Democratic Party,0.52,D
4788,Minnesota House of Representatives District 15A,51771,Sondra Erickson,Republican Party,0.339,R
4789,Minnesota House of Representatives District 15B,302061,Shane Mekeland,Republican Party,0.286,R
4790,Minnesota House of Representatives District 16A,8989,Chris Swedzinski,Republican Party,0.393,R
4791,Minnesota House of Representatives District 16B,43895,Paul Torkelson,Republican Party,0.349,R
4792,Minnesota House of Representatives District 17A,55149,Tim Miller,Republican Party,0.385,R
4793,Minnesota House of Representatives District 17B,11987,Dave Baker,Republican Party,0.417,R
4794,Minnesota House of Representatives District 18A,13570,Dean Urdahl,Republican Party,0.339,R
4795,Minnesota House of Representatives District 18B,20003,Glenn Gruenhagen,Republican Party,0.324,R
4796,Minnesota House of Representatives District 19A,302070,Jeff Brand,Democratic Party,0.516,D
4797,Minnesota House of Representatives District 19B,22175,Jack Considine,Democratic Party,0.582,D
4798,Minnesota House of Representatives District 20A,5138,Bob Vogel,Republican Party,0.365,R
4799,Minnesota House of Representatives District 20B,302073,Todd Lippert,Democratic Party,0.529,D
4800,Minnesota House of Representatives District 21A,3168,Barb Haley,Republican Party,0.471,R
4801,Minnesota House of Representatives District 21B,52497,Steve Drazkowski,Republican Party,0.383,R
4802,Minnesota House of Representatives District 22A,27020,Joe Schomacker,Republican Party,0.345,R
4803,Minnesota House of Representatives District 22B,48169,Rod Hamilton,Republican Party,0.382,R
4804,Minnesota House of Representatives District 23A,4940,Bob Gunther,Republican Party,0.34,R
4805,Minnesota House of Representatives District 23B,293345,Jeremy Munson,Republican Party,0.412,R
4806,Minnesota House of Representatives District 24A,28436,John Petersburg,Republican Party,0.409,R
4807,Minnesota House of Representatives District 24B,5909,Brian Daniels,Republican Party,0.411,R
4808,Minnesota House of Representatives District 25A,15793,Duane Quam,Republican Party,0.433,R
4809,Minnesota House of Representatives District 25B,15797,Duane Sauke,Democratic Party,0.557,D
4810,Minnesota House of Representatives District 26A,55460,Tina Liebling,Democratic Party,0.6,D
4811,Minnesota House of Representatives District 26B,41949,Nels Pierson,Republican Party,0.439,R
4812,Minnesota House of Representatives District 27A,44020,Peggy Bennett,Republican Party,0.456,R
4813,Minnesota House of Representatives District 27B,24363,Jeanne Poppe,Democratic Party,0.503,D
4814,Minnesota House of Representatives District 28A,19272,Gene Pelowski,Democratic Party,0.547,D
4815,Minnesota House of Representatives District 28B,20291,Gregory Davids,Republican Party,0.448,R
4816,Minnesota House of Representatives District 29A,26928,Joe McDonald,Republican Party,0.346,R
4817,Minnesota House of Representatives District 29B,36670,Marion O'Neill,Republican Party,0.372,R
4818,Minnesota House of Representatives District 30A,42164,Nick Zerwas,Republican Party,0.364,R
4819,Minnesota House of Representatives District 30B,17334,Eric Lucero,Republican Party,0.347,R
4820,Minnesota House of Representatives District 31A,33198,Kurt Daudt,Republican Party,0.3,R
4821,Minnesota House of Representatives District 31B,6822,Calvin Bahr,Republican Party,0.342,R
4822,Minnesota House of Representatives District 32A,6018,Brian Johnson,Republican Party,0.355,R
4823,Minnesota House of Representatives District 32B,95590,Anne Neu,Republican Party,0.384,R
4824,Minnesota House of Representatives District 33A,25385,Jerry Hertaus,Republican Party,0.396,R
4825,Minnesota House of Representatives District 33B,303915,Kelly Morrison,Democratic Party,0.481,D
4826,Minnesota House of Representatives District 34A,303997,Kristin Robbins,Republican Party,0.434,R
4827,Minnesota House of Representatives District 34B,33116,Kristin Bahner,Democratic Party,0.513,D
4828,Minnesota House of Representatives District 35A,303996,John Heinrich,Republican Party,0.441,R
4829,Minnesota House of Representatives District 35B,44056,Peggy Scott,Republican Party,0.413,R
4830,Minnesota House of Representatives District 36A,303919,Zack Stephenson,Democratic Party,0.496,D
4831,Minnesota House of Representatives District 36B,38902,Melissa Hortman,Democratic Party,0.565,D
4832,Minnesota House of Representatives District 37A,17568,Erin Koegel,Democratic Party,0.527,D
4833,Minnesota House of Representatives District 37B,42314,Nolan West,Republican Party,0.489,R
4834,Minnesota House of Representatives District 38A,34902,Linda Runbeck,Republican Party,0.45,R
4835,Minnesota House of Representatives District 38B,1331,Ami Wazlawik,Democratic Party,0.492,D
4836,Minnesota House of Representatives District 39A,4874,Bob Dettmer,Republican Party,0.452,R
4837,Minnesota House of Representatives District 39B,303922,Shelly Christensen,Democratic Party,0.496,D
4838,Minnesota House of Representatives District 40A,40113,Michael Nelson,Democratic Party,0.716,D
4839,Minnesota House of Representatives District 40B,303924,Samantha Vang,Democratic Party,0.703,D
4840,Minnesota House of Representatives District 41A,10091,Connie Bernardy,Democratic Party,0.618,D
4841,Minnesota House of Representatives District 41B,37953,Mary Kunesh-Podein,Democratic Party,0.679,D
4842,Minnesota House of Representatives District 42A,303926,Kelly Moller,Democratic Party,0.568,D
4843,Minnesota House of Representatives District 42B,23380,Jamie Becker-Finn,Democratic Party,0.606,D
4844,Minnesota House of Representatives District 43A,44250,Peter Fischer,Democratic Party,0.588,D
4845,Minnesota House of Representatives District 43B,34427,Leon Lillie,Democratic Party,0.581,D
4846,Minnesota House of Representatives District 44A,19888,Ginny Klevorn,Democratic Party,0.547,D
4847,Minnesota House of Representatives District 44B,303927,Patty Acomb,Democratic Party,0.599,D
4848,Minnesota House of Representatives District 45A,35794,Lyndon Carlson,Democratic Party,0.629,D
4849,Minnesota House of Representatives District 45B,40598,Mike Freiberg,Democratic Party,0.689,D
4850,Minnesota House of Representatives District 46A,44029,Peggy Flanagan,Democratic Party,0.704,D
4851,Minnesota House of Representatives District 46B,8557,Cheryl Youakim,Democratic Party,0.732,D
4852,Minnesota House of Representatives District 47A,26149,Jim Nash,Republican Party,0.358,R
4853,Minnesota House of Representatives District 47B,26857,Joe Hoppe,Republican Party,0.466,R
4854,Minnesota House of Representatives District 48A,34038,Laurie Pryor,Democratic Party,0.581,D
4855,Minnesota House of Representatives District 48B,303930,Carlie Kotyza-Witthuhn,Democratic Party,0.541,D
4856,Minnesota House of Representatives District 49A,303931,Heather Edelson,Democratic Party,0.606,D
4857,Minnesota House of Representatives District 49B,301324,Steve Elkins,Democratic Party,0.589,D
4858,Minnesota House of Representatives District 50A,303932,Michael Howard,Democratic Party,0.673,D
4859,Minnesota House of Representatives District 50B,1613,Andrew Carlson,Democratic Party,0.603,D
4860,Minnesota House of Representatives District 51A,50041,Sandra Masin,Democratic Party,0.591,D
4861,Minnesota House of Representatives District 51B,34020,Laurie Halverson,Democratic Party,0.576,D
4862,Minnesota House of Representatives District 52A,46759,Rick Hansen,Democratic Party,0.615,D
4863,Minnesota House of Representatives District 52B,303933,Ruth Richardson,Democratic Party,0.542,D
4864,Minnesota House of Representatives District 53A,303934,Tou Xiong,Democratic Party,0.593,D
4865,Minnesota House of Representatives District 53B,303935,Steve Sandell,Democratic Party,0.523,D
4866,Minnesota House of Representatives District 54A,303936,Anne Claflin,Democratic Party,0.545,D
4867,Minnesota House of Representatives District 54B,56297,Tony Jurgens,Republican Party,0.486,R
4868,Minnesota House of Representatives District 55A,303938,Brad Tabke,Democratic Party,0.483,D
4869,Minnesota House of Representatives District 55B,56206,Tony Albright,Republican Party,0.385,R
4870,Minnesota House of Representatives District 56A,303939,Hunter Cantrell,Democratic Party,0.506,D
4871,Minnesota House of Representatives District 56B,303940,Alice Mann,Democratic Party,0.52,D
4872,Minnesota House of Representatives District 57A,303941,Robert Bierman,Democratic Party,0.537,D
4873,Minnesota House of Representatives District 57B,27937,John Huot,Democratic Party,0.518,D
4874,Minnesota House of Representatives District 58A,29083,Jon Koznick,Republican Party,0.443,R
4875,Minnesota House of Representatives District 58B,42849,Pat Garofalo,Republican Party,0.41,R
4876,Minnesota House of Representatives District 59A,18677,Fue Lee,Democratic Party,0.851,D
4877,Minnesota House of Representatives District 59B,45585,Raymond Dehn,Democratic Party,0.841,D
4878,Minnesota House of Representatives District 60A,14567,Diane Loeffler,Democratic Party,0.843,D
4879,Minnesota House of Representatives District 60B,41282,Mohamud Noor,Democratic Party,0.859,D
4880,Minnesota House of Representatives District 61A,18293,Frank Hornstein,Democratic Party,0.851,D
4881,Minnesota House of Representatives District 61B,303955,Jamie Long,Democratic Party,0.849,D
4882,Minnesota House of Representatives District 62A,303957,Hodan Hassan,Democratic Party,0.916,D
4883,Minnesota House of Representatives District 62B,303960,Aisha Gomez,Democratic Party,0.921,D
4884,Minnesota House of Representatives District 63A,25897,Jim Davnie,Democratic Party,0.881,D
4885,Minnesota House of Representatives District 63B,24311,Jean Wagenius,Democratic Party,0.791,D
4886,Minnesota House of Representatives District 64A,303961,Kaohly Her,Democratic Party,0.84,D
4887,Minnesota House of Representatives District 64B,12125,Dave Pinto,Democratic Party,0.78,D
4888,Minnesota House of Representatives District 65A,45857,Rena Moran,Democratic Party,0.866,D
4889,Minnesota House of Representatives District 65B,7117,Carlos Mariani,Democratic Party,0.809,D
4890,Minnesota House of Representatives District 66A,978,Alice Hausman,Democratic Party,0.723,D
4891,Minnesota House of Representatives District 66B,28128,John Lesch,Democratic Party,0.824,D
4892,Minnesota House of Representatives District 67A,55136,Tim Mahoney,Democratic Party,0.768,D
4893,Minnesota House of Representatives District 67B,303962,Jay Xiong,Democratic Party,0.766,D